…
    Fix %>% filter(ID == 101) %>% 
      group_by(Session, Trial) %>% 
      summarise(
        fixations = max(FixationN),
        max_pupil = max(PupilSize),
        min_pupil = min(PupilSize),
        mean_pupil = mean(PupilSize),
        mean_dur_ms = mean(Duration),
        max_dur_ms = max(Duration),
        group = Group[1]
        
    )

    ## # A tibble: 306 x 9
    ## # Groups:   Session [2]
    ##    Session Trial fixations max_pupil min_pupil mean_pupil mean_dur_ms
    ##      <dbl> <dbl>     <dbl>     <dbl>     <dbl>      <dbl>       <dbl>
    ##  1       1     1        59     47100     30500     37764.        303.
    ##  2       1     2        29     45600     34200     39366.        389.
    ##  3       1     3        20     38700     33800     36850         438.
    ##  4       1     4        13     42900     36600     39646.        571.
    ##  5       1     5        12     44000     38200     40758.        484.
    ##  6       1     6        28     39400     28700     36479.        321.
    ##  7       1     7        23     43600     34100     39474.        323.
    ##  8       1     8        14     39000     31900     35329.        597.
    ##  9       1     9        25     42500     32700     37700         423.
    ## 10       1    10        20     47600     35600     42065         471.
    ## # ... with 296 more rows, and 2 more variables: max_dur_ms <dbl>,
    ## #   group <dbl>
…
